%!PS-Adobe-3.0 EPSF-3.0
%%BoundingBox: 35 599 200 773
%%Title: HHmodelFig
%%CreationDate: Sun Jul  3 15:47:48 2011
%%Creator: Tgif-4.2.2 written by William Chia-Wei Cheng (bill.cheng@acm.org)
%%ProducedBy: (unknown)
%%Pages: 1
%%DocumentFonts: (atend)
%%EndComments
%%BeginProlog

/tgifdict 56 dict def
tgifdict begin

/tgifellipsedict 6 dict def
tgifellipsedict /mtrx matrix put

/TGEL % tgifellipse
 { tgifellipsedict begin
      /yrad exch def
      /xrad exch def
      /y exch def
      /x exch def
      /savematrix mtrx currentmatrix def
      x y translate
      xrad yrad scale
      0 0 1 0 360 arc
      savematrix setmatrix
   end
 } def

/tgifarrowtipdict 8 dict def
tgifarrowtipdict /mtrx matrix put

/TGAT % tgifarrowtip
 { tgifarrowtipdict begin
      /dy exch def
      /dx exch def
      /h exch def
      /w exch def
      /y exch def
      /x exch def
      /savematrix mtrx currentmatrix def
      x y translate
      dy dx atan rotate
      0 0 moveto
      w neg h lineto
      w neg h neg lineto
      savematrix setmatrix
   end
 } def

/TGMAX
 { exch dup 3 1 roll exch dup 3 1 roll gt { pop } { exch pop } ifelse
 } def
/TGMIN
 { exch dup 3 1 roll exch dup 3 1 roll lt { pop } { exch pop } ifelse
 } def
/TGSW { stringwidth pop } def
/tgifstrw 0 def

/bd { bind def } bind def

/GS { gsave } bd
/GR { grestore } bd
/NP { newpath } bd
/CP { closepath } bd
/CHP { charpath } bd
/CT { curveto } bd
/L { lineto } bd
/RL { rlineto } bd
/M { moveto } bd
/RM { rmoveto } bd
/S { stroke } bd
/F { fill } bd
/TR { translate } bd
/RO { rotate } bd
/SC { scale } bd
/MU { mul } bd
/DI { div } bd
/DU { dup } bd
/NE { neg } bd
/AD { add } bd
/SU { sub } bd
/PO { pop } bd
/EX { exch } bd
/CO { concat } bd
/CL { clip } bd
/EC { eoclip } bd
/EF { eofill } bd
/IM { image } bd
/IMM { imagemask } bd
/ARY { array } bd
/SG { setgray } bd
/RG { setrgbcolor } bd
/SD { setdash } bd
/W { setlinewidth } bd
/SM { setmiterlimit } bd
/SLC { setlinecap } bd
/SLJ { setlinejoin } bd
/SH { show } bd
/FF { findfont } bd
/MS { makefont setfont } bd
/AR { arcto 4 {pop} repeat } bd
/CURP { currentpoint } bd
/FLAT { flattenpath strokepath clip newpath } bd
/TGSM { tgiforigctm setmatrix } def
/TGRM { savematrix setmatrix } def

end

%%EndProlog
%%Page: 1 1

%%PageBoundingBox: 35 599 200 773
tgifdict begin
/tgifsavedpage save def

1 SM
1 W

0 SG

72 0 MU 72 11 MU TR
72 128 DI 100.000 MU 100 DI DU NE SC

GS

/tgiforigctm matrix currentmatrix def

% POLY/OPEN-SPLINE
0 SG
GS
   NP
      64 184 M
      96 184 L
   TGSM
   1 W
   S
GR

% POLY/OPEN-SPLINE
0 SG
GS
   NP
      64 192 M
      96 192 L
   TGSM
   1 W
   S
GR

% POLY/OPEN-SPLINE
0 SG
GS
   NP
      80 184 M
      80 168 L
   TGSM
   1 W
   S
GR

% POLY/OPEN-SPLINE
0 SG
GS
   NP
      80 208 M
      80 192 L
   TGSM
   1 W
   S
GR

% POLY/OPEN-SPLINE
0 SG
GS
   NP
      80 92 M
      80 172 L
   TGSM
   1 W
   S
GR

% POLY/OPEN-SPLINE
0 SG
GS
   NP
      80 284 M
      80 208 L
   TGSM
   1 W
   S
GR

% POLY/OPEN-SPLINE
0 SG
GS
   NP
      156 136 M
      164 140 L
   TGSM
   1 W
   S
GR

% POLY/OPEN-SPLINE
0 SG
GS
   NP
      164 140 M
      156 144 L
   TGSM
   1 W
   S
GR

% POLY/OPEN-SPLINE
0 SG
GS
   NP
      156 144 M
      148 148 L
   TGSM
   1 W
   S
GR

% POLY/OPEN-SPLINE
0 SG
GS
   NP
      148 148 M
      156 152 L
   TGSM
   1 W
   S
GR

% POLY/OPEN-SPLINE
0 SG
GS
   NP
      156 152 M
      164 156 L
   TGSM
   1 W
   S
GR

% POLY/OPEN-SPLINE
0 SG
GS
   NP
      164 156 M
      156 160 L
   TGSM
   1 W
   S
GR

% POLY/OPEN-SPLINE
0 SG
GS
   NP
      156 160 M
      148 164 L
   TGSM
   1 W
   S
GR

% POLY/OPEN-SPLINE
0 SG
GS
   NP
      148 164 M
      156 168 L
   TGSM
   1 W
   S
GR

% POLY/OPEN-SPLINE
0 SG
GS
   NP
      156 168 M
      164 172 L
   TGSM
   1 W
   S
GR

% POLY/OPEN-SPLINE
0 SG
GS
   NP
      164 172 M
      156 176 L
   TGSM
   1 W
   S
GR

% POLY/OPEN-SPLINE
0 SG
GS
   NP
      156 176 M
      148 180 L
   TGSM
   1 W
   S
GR

% POLY/OPEN-SPLINE
0 SG
GS
   NP
      148 180 M
      156 184 L
   TGSM
   1 W
   S
GR

% POLY/OPEN-SPLINE
0 SG
GS
   NP
      140 220 M
      176 220 L
   TGSM
   1 W
   S
GR

% BOX
0 SG
NP 148 228 M 164 228 L 164 232 L 148 232 L CP F
GS
   10 SM
   GS
      NP 148 228 M 164 228 L 164 232 L 148 232 L CP
      S
   GR
GR

% POLY/OPEN-SPLINE
0 SG
GS
   NP
      156 220 M
      156 204 L
   TGSM
   1 W
   S
GR

% POLY/OPEN-SPLINE
0 SG
GS
   NP
      156 248 M
      156 232 L
   TGSM
   1 W
   S
GR

% POLY/OPEN-SPLINE
0 SG
GS
   NP
      156 204 M
      156 184 L
   TGSM
   1 W
   S
GR

% POLY/OPEN-SPLINE
0 SG
GS
   NP
      156 284 M
      156 244 L
   TGSM
   1 W
   S
GR

% POLY/OPEN-SPLINE
0 SG
GS
   NP
      156 92 M
      156 136 L
   TGSM
   1 W
   S
GR

% POLY/OPEN-SPLINE
0 SG
GS
   NP
      132 184 M
      -44 48 atan DU cos 8.000 MU 180 exch SU
      exch sin 8.000 MU 140 exch SU L
   TGSM
   1 W
   S
GR
GS
   TGSM
   NP
      180 140 8.000 3.000 48 -44 TGAT
   1 SG CP F
   0 SG
   NP
      180 140 8.000 3.000 48 -44 TGAT
   CP F
GR

% POLY/OPEN-SPLINE
0 SG
GS
   NP
      236 136 M
      244 140 L
   TGSM
   1 W
   S
GR

% POLY/OPEN-SPLINE
0 SG
GS
   NP
      244 140 M
      236 144 L
   TGSM
   1 W
   S
GR

% POLY/OPEN-SPLINE
0 SG
GS
   NP
      236 144 M
      228 148 L
   TGSM
   1 W
   S
GR

% POLY/OPEN-SPLINE
0 SG
GS
   NP
      228 148 M
      236 152 L
   TGSM
   1 W
   S
GR

% POLY/OPEN-SPLINE
0 SG
GS
   NP
      236 152 M
      244 156 L
   TGSM
   1 W
   S
GR

% POLY/OPEN-SPLINE
0 SG
GS
   NP
      244 156 M
      236 160 L
   TGSM
   1 W
   S
GR

% POLY/OPEN-SPLINE
0 SG
GS
   NP
      236 160 M
      228 164 L
   TGSM
   1 W
   S
GR

% POLY/OPEN-SPLINE
0 SG
GS
   NP
      228 164 M
      236 168 L
   TGSM
   1 W
   S
GR

% POLY/OPEN-SPLINE
0 SG
GS
   NP
      236 168 M
      244 172 L
   TGSM
   1 W
   S
GR

% POLY/OPEN-SPLINE
0 SG
GS
   NP
      244 172 M
      236 176 L
   TGSM
   1 W
   S
GR

% POLY/OPEN-SPLINE
0 SG
GS
   NP
      236 176 M
      228 180 L
   TGSM
   1 W
   S
GR

% POLY/OPEN-SPLINE
0 SG
GS
   NP
      228 180 M
      236 184 L
   TGSM
   1 W
   S
GR

% POLY/OPEN-SPLINE
0 SG
GS
   NP
      220 232 M
      256 232 L
   TGSM
   1 W
   S
GR

% BOX
0 SG
NP 228 220 M 244 220 L 244 224 L 228 224 L CP F
GS
   10 SM
   GS
      NP 228 220 M 244 220 L 244 224 L 228 224 L CP
      S
   GR
GR

% POLY/OPEN-SPLINE
0 SG
GS
   NP
      236 232 M
      236 248 L
   TGSM
   1 W
   S
GR

% POLY/OPEN-SPLINE
0 SG
GS
   NP
      236 204 M
      236 220 L
   TGSM
   1 W
   S
GR

% POLY/OPEN-SPLINE
0 SG
GS
   NP
      236 204 M
      236 184 L
   TGSM
   1 W
   S
GR

% POLY/OPEN-SPLINE
0 SG
GS
   NP
      236 284 M
      236 244 L
   TGSM
   1 W
   S
GR

% POLY/OPEN-SPLINE
0 SG
GS
   NP
      236 92 M
      236 136 L
   TGSM
   1 W
   S
GR

% POLY/OPEN-SPLINE
0 SG
GS
   NP
      212 184 M
      -44 48 atan DU cos 8.000 MU 260 exch SU
      exch sin 8.000 MU 140 exch SU L
   TGSM
   1 W
   S
GR
GS
   TGSM
   NP
      260 140 8.000 3.000 48 -44 TGAT
   1 SG CP F
   0 SG
   NP
      260 140 8.000 3.000 48 -44 TGAT
   CP F
GR

% POLY/OPEN-SPLINE
0 SG
GS
   NP
      312 136 M
      320 140 L
   TGSM
   1 W
   S
GR

% POLY/OPEN-SPLINE
0 SG
GS
   NP
      320 140 M
      312 144 L
   TGSM
   1 W
   S
GR

% POLY/OPEN-SPLINE
0 SG
GS
   NP
      312 144 M
      304 148 L
   TGSM
   1 W
   S
GR

% POLY/OPEN-SPLINE
0 SG
GS
   NP
      304 148 M
      312 152 L
   TGSM
   1 W
   S
GR

% POLY/OPEN-SPLINE
0 SG
GS
   NP
      312 152 M
      320 156 L
   TGSM
   1 W
   S
GR

% POLY/OPEN-SPLINE
0 SG
GS
   NP
      320 156 M
      312 160 L
   TGSM
   1 W
   S
GR

% POLY/OPEN-SPLINE
0 SG
GS
   NP
      312 160 M
      304 164 L
   TGSM
   1 W
   S
GR

% POLY/OPEN-SPLINE
0 SG
GS
   NP
      304 164 M
      312 168 L
   TGSM
   1 W
   S
GR

% POLY/OPEN-SPLINE
0 SG
GS
   NP
      312 168 M
      320 172 L
   TGSM
   1 W
   S
GR

% POLY/OPEN-SPLINE
0 SG
GS
   NP
      320 172 M
      312 176 L
   TGSM
   1 W
   S
GR

% POLY/OPEN-SPLINE
0 SG
GS
   NP
      312 176 M
      304 180 L
   TGSM
   1 W
   S
GR

% POLY/OPEN-SPLINE
0 SG
GS
   NP
      304 180 M
      312 184 L
   TGSM
   1 W
   S
GR

% POLY/OPEN-SPLINE
0 SG
GS
   NP
      296 232 M
      332 232 L
   TGSM
   1 W
   S
GR

% BOX
0 SG
NP 304 220 M 320 220 L 320 224 L 304 224 L CP F
GS
   10 SM
   GS
      NP 304 220 M 320 220 L 320 224 L 304 224 L CP
      S
   GR
GR

% POLY/OPEN-SPLINE
0 SG
GS
   NP
      312 232 M
      312 248 L
   TGSM
   1 W
   S
GR

% POLY/OPEN-SPLINE
0 SG
GS
   NP
      312 204 M
      312 220 L
   TGSM
   1 W
   S
GR

% POLY/OPEN-SPLINE
0 SG
GS
   NP
      312 204 M
      312 184 L
   TGSM
   1 W
   S
GR

% POLY/OPEN-SPLINE
0 SG
GS
   NP
      312 284 M
      312 244 L
   TGSM
   1 W
   S
GR

% POLY/OPEN-SPLINE
0 SG
GS
   NP
      312 92 M
      312 136 L
   TGSM
   1 W
   S
GR

% POLY/OPEN-SPLINE
0 SG
GS
   NP
      288 184 M
      -44 48 atan DU cos 8.000 MU 336 exch SU
      exch sin 8.000 MU 140 exch SU L
   TGSM
   1 W
   S
GR
GS
   TGSM
   NP
      336 140 8.000 3.000 48 -44 TGAT
   1 SG CP F
   0 SG
   NP
      336 140 8.000 3.000 48 -44 TGAT
   CP F
GR

% TEXT
NP
0 SG
   GS
      1 W
      100 192 M
      GS
            0 SG
            /Courier FF [14 0 0 -14 0 0] MS
            (C) SH
      GR
   GR

% TEXT
NP
0 SG
   GS
      1 W
      112 196 M
      GS
            0 SG
            /Courier FF [14 0 0 -14 0 0] MS
            (m) SH
      GR
   GR

% TEXT
NP
0 SG
   GS
      1 W
      172 164 M
      GS
            0 SG
            /Courier FF [14 0 0 -14 0 0] MS
            (G) SH
      GR
   GR

% TEXT
NP
0 SG
   GS
      1 W
      184 168 M
      GS
            0 SG
            /Courier FF [14 0 0 -14 0 0] MS
            (Na) SH
      GR
   GR

% TEXT
NP
0 SG
   GS
      1 W
      248 164 M
      GS
            0 SG
            /Courier FF [14 0 0 -14 0 0] MS
            (G) SH
      GR
   GR

% TEXT
NP
0 SG
   GS
      1 W
      260 168 M
      GS
            0 SG
            /Courier FF [14 0 0 -14 0 0] MS
            (K) SH
      GR
   GR

% TEXT
NP
0 SG
   GS
      1 W
      328 164 M
      GS
            0 SG
            /Courier FF [14 0 0 -14 0 0] MS
            (G) SH
      GR
   GR

% TEXT
NP
0 SG
   GS
      1 W
      340 168 M
      GS
            0 SG
            /Courier FF [14 0 0 -14 0 0] MS
            (m) SH
      GR
   GR

% TEXT
NP
0 SG
   GS
      1 W
      176 228 M
      GS
            0 SG
            /Courier FF [14 0 0 -14 0 0] MS
            (E) SH
      GR
   GR

% TEXT
NP
0 SG
   GS
      1 W
      188 232 M
      GS
            0 SG
            /Courier FF [14 0 0 -14 0 0] MS
            (Na) SH
      GR
   GR

% TEXT
NP
0 SG
   GS
      1 W
      252 228 M
      GS
            0 SG
            /Courier FF [14 0 0 -14 0 0] MS
            (E) SH
      GR
   GR

% TEXT
NP
0 SG
   GS
      1 W
      264 232 M
      GS
            0 SG
            /Courier FF [14 0 0 -14 0 0] MS
            (K) SH
      GR
   GR

% TEXT
NP
0 SG
   GS
      1 W
      332 228 M
      GS
            0 SG
            /Courier FF [14 0 0 -14 0 0] MS
            (E) SH
      GR
   GR

% TEXT
NP
0 SG
   GS
      1 W
      344 232 M
      GS
            0 SG
            /Courier FF [14 0 0 -14 0 0] MS
            (L) SH
      GR
   GR

% POLY/OPEN-SPLINE
0 SG
GS
   NP
      80 92 M
      312 92 L
   TGSM
   1 W
   S
GR

% POLY/OPEN-SPLINE
0 SG
GS
   NP
      80 284 M
      312 284 L
   TGSM
   1 W
   S
GR

% OVAL
0 SG
NP 156 284 4 4 TGEL F
GS
   GS
      NP 156 284 4 4 TGEL
      S
   GR
GR

% OVAL
0 SG
NP 236 284 4 4 TGEL F
GS
   GS
      NP 236 284 4 4 TGEL
      S
   GR
GR

% OVAL
0 SG
NP 236 92 4 4 TGEL F
GS
   GS
      NP 236 92 4 4 TGEL
      S
   GR
GR

% OVAL
0 SG
NP 156 92 4 4 TGEL F
GS
   GS
      NP 156 92 4 4 TGEL
      S
   GR
GR

% POLY/OPEN-SPLINE
0 SG
GS
   NP
      196 92 M
      196 44 L
   TGSM
   1 W
   S
GR

% POLY/OPEN-SPLINE
0 SG
GS
   NP
      196 332 M
      196 284 L
   TGSM
   1 W
   S
GR

% OVAL
0 SG
NP 196 92 4 4 TGEL F
GS
   GS
      NP 196 92 4 4 TGEL
      S
   GR
GR

% OVAL
0 SG
NP 196 284 4 4 TGEL F
GS
   GS
      NP 196 284 4 4 TGEL
      S
   GR
GR

% OVAL
0 SG
GS
   GS
      NP 196 40 4 4 TGEL
      S
   GR
GR

% OVAL
0 SG
GS
   GS
      NP 196 336 4 4 TGEL
      S
   GR
GR

% TEXT
NP
0 SG
   GS
      1 W
      208 48 M
      GS
            0 SG
            /Courier FF [14 0 0 -14 0 0] MS
            (Intracellular) SH
      GR
   GR

% TEXT
NP
0 SG
   GS
      1 W
      212 336 M
      GS
            0 SG
            /Courier FF [14 0 0 -14 0 0] MS
            (Extracellular) SH
      GR
   GR

GR
tgifsavedpage restore
end
showpage

%%Trailer
%MatchingCreationDate: Sun Jul  3 15:47:48 2011
%%DocumentFonts: Courier
%%EOF
