%!PS-Adobe-2.0 EPSF-2.0
%%Title: w_sum.fig
%%Creator: fig2dev Version 3.2 Patchlevel 5
%%CreationDate: Sat Nov  6 19:12:40 2010
%%For: komo@vaiola (komo)
%%BoundingBox: 0 0 325 335
%Magnification: 1.0000
%%EndComments
/$F2psDict 200 dict def
$F2psDict begin
$F2psDict /mtrx matrix put
/col-1 {0 setgray} bind def
/col0 {0.000 0.000 0.000 srgb} bind def
/col1 {0.000 0.000 1.000 srgb} bind def
/col2 {0.000 1.000 0.000 srgb} bind def
/col3 {0.000 1.000 1.000 srgb} bind def
/col4 {1.000 0.000 0.000 srgb} bind def
/col5 {1.000 0.000 1.000 srgb} bind def
/col6 {1.000 1.000 0.000 srgb} bind def
/col7 {1.000 1.000 1.000 srgb} bind def
/col8 {0.000 0.000 0.560 srgb} bind def
/col9 {0.000 0.000 0.690 srgb} bind def
/col10 {0.000 0.000 0.820 srgb} bind def
/col11 {0.530 0.810 1.000 srgb} bind def
/col12 {0.000 0.560 0.000 srgb} bind def
/col13 {0.000 0.690 0.000 srgb} bind def
/col14 {0.000 0.820 0.000 srgb} bind def
/col15 {0.000 0.560 0.560 srgb} bind def
/col16 {0.000 0.690 0.690 srgb} bind def
/col17 {0.000 0.820 0.820 srgb} bind def
/col18 {0.560 0.000 0.000 srgb} bind def
/col19 {0.690 0.000 0.000 srgb} bind def
/col20 {0.820 0.000 0.000 srgb} bind def
/col21 {0.560 0.000 0.560 srgb} bind def
/col22 {0.690 0.000 0.690 srgb} bind def
/col23 {0.820 0.000 0.820 srgb} bind def
/col24 {0.500 0.190 0.000 srgb} bind def
/col25 {0.630 0.250 0.000 srgb} bind def
/col26 {0.750 0.380 0.000 srgb} bind def
/col27 {1.000 0.500 0.500 srgb} bind def
/col28 {1.000 0.630 0.630 srgb} bind def
/col29 {1.000 0.750 0.750 srgb} bind def
/col30 {1.000 0.880 0.880 srgb} bind def
/col31 {1.000 0.840 0.000 srgb} bind def

end
save
newpath 0 335 moveto 0 0 lineto 325 0 lineto 325 335 lineto closepath clip newpath
-40.8 365.7 translate
1 -1 scale

/cp {closepath} bind def
/ef {eofill} bind def
/gr {grestore} bind def
/gs {gsave} bind def
/sa {save} bind def
/rs {restore} bind def
/l {lineto} bind def
/m {moveto} bind def
/rm {rmoveto} bind def
/n {newpath} bind def
/s {stroke} bind def
/sh {show} bind def
/slc {setlinecap} bind def
/slj {setlinejoin} bind def
/slw {setlinewidth} bind def
/srgb {setrgbcolor} bind def
/rot {rotate} bind def
/sc {scale} bind def
/sd {setdash} bind def
/ff {findfont} bind def
/sf {setfont} bind def
/scf {scalefont} bind def
/sw {stringwidth} bind def
/tr {translate} bind def
/tnt {dup dup currentrgbcolor
  4 -2 roll dup 1 exch sub 3 -1 roll mul add
  4 -2 roll dup 1 exch sub 3 -1 roll mul add
  4 -2 roll dup 1 exch sub 3 -1 roll mul add srgb}
  bind def
/shd {dup dup currentrgbcolor 4 -2 roll mul 4 -2 roll mul
  4 -2 roll mul srgb} bind def
/reencdict 12 dict def /ReEncode { reencdict begin
/newcodesandnames exch def /newfontname exch def /basefontname exch def
/basefontdict basefontname findfont def /newfont basefontdict maxlength dict def
basefontdict { exch dup /FID ne { dup /Encoding eq
{ exch dup length array copy newfont 3 1 roll put }
{ exch newfont 3 1 roll put } ifelse } { pop pop } ifelse } forall
newfont /FontName newfontname put newcodesandnames aload pop
128 1 255 { newfont /Encoding get exch /.notdef put } for
newcodesandnames length 2 idiv { newfont /Encoding get 3 1 roll put } repeat
newfontname newfont definefont pop end } def
/isovec [
8#055 /minus 8#200 /grave 8#201 /acute 8#202 /circumflex 8#203 /tilde
8#204 /macron 8#205 /breve 8#206 /dotaccent 8#207 /dieresis
8#210 /ring 8#211 /cedilla 8#212 /hungarumlaut 8#213 /ogonek 8#214 /caron
8#220 /dotlessi 8#230 /oe 8#231 /OE
8#240 /space 8#241 /exclamdown 8#242 /cent 8#243 /sterling
8#244 /currency 8#245 /yen 8#246 /brokenbar 8#247 /section 8#250 /dieresis
8#251 /copyright 8#252 /ordfeminine 8#253 /guillemotleft 8#254 /logicalnot
8#255 /hyphen 8#256 /registered 8#257 /macron 8#260 /degree 8#261 /plusminus
8#262 /twosuperior 8#263 /threesuperior 8#264 /acute 8#265 /mu 8#266 /paragraph
8#267 /periodcentered 8#270 /cedilla 8#271 /onesuperior 8#272 /ordmasculine
8#273 /guillemotright 8#274 /onequarter 8#275 /onehalf
8#276 /threequarters 8#277 /questiondown 8#300 /Agrave 8#301 /Aacute
8#302 /Acircumflex 8#303 /Atilde 8#304 /Adieresis 8#305 /Aring
8#306 /AE 8#307 /Ccedilla 8#310 /Egrave 8#311 /Eacute
8#312 /Ecircumflex 8#313 /Edieresis 8#314 /Igrave 8#315 /Iacute
8#316 /Icircumflex 8#317 /Idieresis 8#320 /Eth 8#321 /Ntilde 8#322 /Ograve
8#323 /Oacute 8#324 /Ocircumflex 8#325 /Otilde 8#326 /Odieresis 8#327 /multiply
8#330 /Oslash 8#331 /Ugrave 8#332 /Uacute 8#333 /Ucircumflex
8#334 /Udieresis 8#335 /Yacute 8#336 /Thorn 8#337 /germandbls 8#340 /agrave
8#341 /aacute 8#342 /acircumflex 8#343 /atilde 8#344 /adieresis 8#345 /aring
8#346 /ae 8#347 /ccedilla 8#350 /egrave 8#351 /eacute
8#352 /ecircumflex 8#353 /edieresis 8#354 /igrave 8#355 /iacute
8#356 /icircumflex 8#357 /idieresis 8#360 /eth 8#361 /ntilde 8#362 /ograve
8#363 /oacute 8#364 /ocircumflex 8#365 /otilde 8#366 /odieresis 8#367 /divide
8#370 /oslash 8#371 /ugrave 8#372 /uacute 8#373 /ucircumflex
8#374 /udieresis 8#375 /yacute 8#376 /thorn 8#377 /ydieresis] def
/Times-Roman /Times-Roman-iso isovec ReEncode
 /DrawEllipse {
	/endangle exch def
	/startangle exch def
	/yrad exch def
	/xrad exch def
	/y exch def
	/x exch def
	/savematrix mtrx currentmatrix def
	x y tr xrad yrad sc 0 0 1 startangle endangle arc
	closepath
	savematrix setmatrix
	} def

/$F2psBegin {$F2psDict begin /$F2psEnteredState save def} def
/$F2psEnd {$F2psEnteredState restore end} def

$F2psBegin
10 setmiterlimit
0 slj 0 slc
 0.06000 0.06000 sc
%
% Fig objects follow
%
% 
% here starts figure with depth 50
/Times-Roman-iso ff 300.00 scf sf
3000 3600 m
gs 1 -1 sc (position \(x,y\) of in) col0 sh gr
/Times-Roman-iso ff 300.00 scf sf
3000 3825 m
gs 1 -1 sc (or \(wc,hc\) of weight) col0 sh gr
% Ellipse
7.500 slw
n 1200 1200 75 75 0 360 DrawEllipse gs 0.00 setgray ef gr gs col0 s gr

% Ellipse
n 2400 2400 75 75 0 360 DrawEllipse gs 0.00 setgray ef gr gs col0 s gr

% Ellipse
n 1800 1800 75 75 0 360 DrawEllipse gs 0.00 setgray ef gr gs col0 s gr

% Polyline
0 slj
0 slc
gs  clippath
2569 2652 m 2493 2521 l 2441 2552 l 2517 2682 l 2517 2682 l 2483 2564 l 2569 2652 l cp
eoclip
n 3000 3450 m
 2475 2550 l gs 0.00 setgray ef gr gs col0 s gr gr

% arrowhead
n 2569 2652 m 2483 2564 l 2517 2682 l  col0 s
% Polyline
n 1800 1800 m 3000 1800 l 3000 3000 l 1800 3000 l
 cp gs col0 s gr 
% Polyline
gs  clippath
1927 1601 m 1800 1685 l 1833 1735 l 1960 1651 l 1960 1651 l 1844 1693 l 1927 1601 l cp
eoclip
n 2250 1425 m
 1830 1702 l gs 0.00 setgray ef gr gs col0 s gr gr

% arrowhead
n 1927 1601 m 1844 1693 l 1960 1651 l  col0 s
% Polyline
gs  clippath
2863 2430 m 3015 2430 l 3015 2370 l 2863 2370 l 2863 2370 l 2983 2400 l 2863 2430 l cp
2612 2370 m 2460 2370 l 2460 2430 l 2612 2430 l 2612 2430 l 2492 2400 l 2612 2370 l cp
eoclip
n 2475 2400 m
 3000 2400 l gs 0.00 setgray ef gr gs col0 s gr gr

% arrowhead
n 2612 2370 m 2492 2400 l 2612 2430 l  col0 s
% arrowhead
n 2863 2430 m 2983 2400 l 2863 2370 l  col0 s
% Polyline
gs  clippath
2883 2237 m 2748 2304 l 2775 2358 l 2910 2291 l 2910 2291 l 2790 2318 l 2883 2237 l cp
eoclip
n 3525 1950 m
 2775 2325 l gs 0.00 setgray ef gr gs col0 s gr gr

% arrowhead
n 2883 2237 m 2790 2318 l 2910 2291 l  col0 s
% Polyline
gs  clippath
2370 2188 m 2370 2340 l 2430 2340 l 2430 2188 l 2430 2188 l 2400 2308 l 2370 2188 l cp
2430 1937 m 2430 1785 l 2370 1785 l 2370 1937 l 2370 1937 l 2400 1817 l 2430 1937 l cp
eoclip
n 2400 1800 m
 2400 2325 l gs 0.00 setgray ef gr gs col0 s gr gr

% arrowhead
n 2430 1937 m 2400 1817 l 2370 1937 l  col0 s
% arrowhead
n 2370 2188 m 2400 2308 l 2430 2188 l  col0 s
% Polyline
gs  clippath
2202 2168 m 2347 2124 l 2330 2066 l 2185 2110 l 2185 2110 l 2309 2105 l 2202 2168 l cp
eoclip
n 1575 2325 m
 2325 2100 l gs 0.00 setgray ef gr gs col0 s gr gr

% arrowhead
n 2202 2168 m 2309 2105 l 2185 2110 l  col0 s
% Polyline
n 1200 1200 m 6000 1200 l 6000 6000 l 1200 6000 l
 cp gs col0 s gr 
% Polyline
gs  clippath
1319 988 m 1240 1118 l 1291 1149 l 1371 1020 l 1371 1020 l 1283 1107 l 1319 988 l cp
eoclip
n 1500 750 m
 1274 1121 l gs 0.00 setgray ef gr gs col0 s gr gr

% arrowhead
n 1319 988 m 1283 1107 l 1371 1020 l  col0 s
% Polyline
gs  clippath
5188 1080 m 5340 1080 l 5340 1020 l 5188 1020 l 5188 1020 l 5308 1050 l 5188 1080 l cp
eoclip
n 2100 1050 m
 5325 1050 l gs 0.00 setgray ef gr gs col0 s gr gr

% arrowhead
n 5188 1080 m 5308 1050 l 5188 1020 l  col0 s
% Polyline
gs  clippath
945 5188 m 945 5340 l 1005 5340 l 1005 5188 l 1005 5188 l 975 5308 l 945 5188 l cp
eoclip
n 975 1725 m
 975 5325 l gs 0.00 setgray ef gr gs col0 s gr gr

% arrowhead
n 945 5188 m 975 5308 l 1005 5188 l  col0 s
/Times-Roman-iso ff 300.00 scf sf
5700 1425 m
gs 1 -1 sc (in) col0 sh gr
/Times-Roman-iso ff 300.00 scf sf
900 3600 m
gs 1 -1 sc  90.0 rot (y-axis) col0 sh gr
/Times-Roman-iso ff 300.00 scf sf
2475 1725 m
gs 1 -1 sc (weight) col0 sh gr
/Times-Roman-iso ff 300.00 scf sf
2325 1425 m
gs 1 -1 sc (origin of weight) col0 sh gr
/Times-Roman-iso ff 300.00 scf sf
3600 1950 m
gs 1 -1 sc (w/2) col0 sh gr
/Times-Roman-iso ff 300.00 scf sf
1425 2550 m
gs 1 -1 sc (h/2) col0 sh gr
/Times-Roman-iso ff 300.00 scf sf
1575 750 m
gs 1 -1 sc (origin of in) col0 sh gr
/Times-Roman-iso ff 300.00 scf sf
3450 975 m
gs 1 -1 sc (x-axis) col0 sh gr
% here ends figure;
$F2psEnd
rs
showpage
%%Trailer
%EOF
